Introduction to multiparameter models
…
```r
posterior <- param_grid %>%
  mutate(
    log_prior = dnorm(mu, 178, 20, log = TRUE) +
      dunif(sigma, 0, 50, log = TRUE),
    log_lik = log_lik_norm(adults$height, mu = mu, sigma = sigma), 
    log_post = log_prior + log_lik,
    unstd_post = exp(log_post - max(log_post)),
    post = unstd_post / sum(unstd_post)
  )
```

```
## # A tibble: 1,000,000 × 7
##      mu sigma log_prior log_lik log_post unstd_post  post
##   <dbl> <dbl>     <dbl>   <dbl>    <dbl>      <dbl> <dbl>
## 1  118      0     -12.3    -Inf     -Inf          0     0
## 2  118.     0     -12.3    -Inf     -Inf          0     0
## 3  118.     0     -12.3    -Inf     -Inf          0     0
## 4  118.     0     -12.3    -Inf     -Inf          0     0
## # … with 999,996 more rows
```
…
