Bayesian model checking
…
## Updated example

Let's suppose we only have one observation per farm

```r
set.seed(84735)
new_coffee <- coffee_ratings %>% 
  group_by(farm_name) %>% 
  sample_n(1) %>% 
  ungroup()
```

```
## # A tibble: 572 × 4
##   farm_name                       total_cup_points aroma aftertaste
##   <fct>                                      <dbl> <dbl>      <dbl>
## 1 -                                           84    7.67       7.67
## 2 1                                           76.2  7.33       6.5 
## 3 200 farms                                   67.9  6.75       6.42
## 4 2000 farmers                                72.3  6.92       7.08
## 5 2000 farms                                  80.8  7.42       7.42
## 6 a shu she coffee 阿束社咖啡莊園             80.1  7.25       7.25
## # … with 566 more rows
```
…
